{
  "formatVersion": 1,
  "database": {
    "version": 2,
    "identityHash": "4007d058fce541346c761266b313cb86",
    "entities": [
      {
        "tableName": "Report",
        "createSql": "CREATE TABLE IF NOT EXISTS `${TABLE_NAME}` (`checked` INTEGER NOT NULL, `id` INTEGER PRIMARY KEY AUTOINCREMENT NOT NULL, `syncState` INTEGER NOT NULL, `boxNumber` TEXT, `culture` TEXT, `cultureYear` TEXT, `docNumber` TEXT, `weight` TEXT, `supplier` TEXT, `loading` TEXT, `autoNumber` TEXT, `humidity` TEXT, `poison` INTEGER NOT NULL, `garbage` TEXT, `smell` TEXT, `unloading` TEXT, `timestamp` INTEGER NOT NULL)",
        "fields": [
          {
            "fieldPath": "checked",
            "columnName": "checked",
            "affinity": "INTEGER",
            "notNull": true
          },
          {
            "fieldPath": "id",
            "columnName": "id",
            "affinity": "INTEGER",
            "notNull": true
          },
          {
            "fieldPath": "syncState",
            "columnName": "syncState",
            "affinity": "INTEGER",
            "notNull": true
          },
          {
            "fieldPath": "boxNumber",
            "columnName": "boxNumber",
            "affinity": "TEXT",
            "notNull": false
          },
          {
            "fieldPath": "culture",
            "columnName": "culture",
            "affinity": "TEXT",
            "notNull": false
          },
          {
            "fieldPath": "cultureYear",
            "columnName": "cultureYear",
            "affinity": "TEXT",
            "notNull": false
          },
          {
            "fieldPath": "docNumber",
            "columnName": "docNumber",
            "affinity": "TEXT",
            "notNull": false
          },
          {
            "fieldPath": "weight",
            "columnName": "weight",
            "affinity": "TEXT",
            "notNull": false
          },
          {
            "fieldPath": "supplier",
            "columnName": "supplier",
            "affinity": "TEXT",
            "notNull": false
          },
          {
            "fieldPath": "loading",
            "columnName": "loading",
            "affinity": "TEXT",
            "notNull": false
          },
          {
            "fieldPath": "autoNumber",
            "columnName": "autoNumber",
            "affinity": "TEXT",
            "notNull": false
          },
          {
            "fieldPath": "humidity",
            "columnName": "humidity",
            "affinity": "TEXT",
            "notNull": false
          },
          {
            "fieldPath": "poison",
            "columnName": "poison",
            "affinity": "INTEGER",
            "notNull": true
          },
          {
            "fieldPath": "garbage",
            "columnName": "garbage",
            "affinity": "TEXT",
            "notNull": false
          },
          {
            "fieldPath": "smell",
            "columnName": "smell",
            "affinity": "TEXT",
            "notNull": false
          },
          {
            "fieldPath": "unloading",
            "columnName": "unloading",
            "affinity": "TEXT",
            "notNull": false
          },
          {
            "fieldPath": "timestamp",
            "columnName": "timestamp",
            "affinity": "INTEGER",
            "notNull": true
          }
        ],
        "primaryKey": {
          "columnNames": [
            "id"
          ],
          "autoGenerate": true
        },
        "indices": [],
        "foreignKeys": []
      }
    ],
    "setupQueries": [
      "CREATE TABLE IF NOT EXISTS room_master_table (id INTEGER PRIMARY KEY,identity_hash TEXT)",
      "INSERT OR REPLACE INTO room_master_table (id,identity_hash) VALUES(42, \"4007d058fce541346c761266b313cb86\")"
    ]
  }
}